%YAML 1.1
%TAG !u! tag:unity3d.com,2011:
--- !u!21 &2100000
Material:
  serializedVersion: 3
  m_ObjectHideFlags: 0
  m_PrefabParentObject: {fileID: 0}
  m_PrefabInternal: {fileID: 0}
  m_Name: Room1
  m_Shader: {fileID: 4800000, guid: 5f34199bd90b0a24da78a66b97a16a93, type: 3}
  m_ShaderKeywords: []
  m_CustomRenderQueue: -1
  m_SavedProperties:
    serializedVersion: 2
    m_TexEnvs:
      data:
        first:
          name: _MainTex
        second:
          m_Texture: {fileID: 0}
          m_Scale: {x: 1, y: 1}
          m_Offset: {x: 0, y: 0}
      data:
        first:
          name: _BumpMap
        second:
          m_Texture: {fileID: 0}
          m_Scale: {x: 1, y: 1}
          m_Offset: {x: 0, y: 0}
      data:
        first:
          name: _DiffMap
        second:
          m_Texture: {fileID: 8900000, guid: 51805b7b243ce3c42bc250dec3b93226, type: 2}
          m_Scale: {x: 1, y: 1}
          m_Offset: {x: 0, y: 0}
      data:
        first:
          name: _SpecMap
        second:
          m_Texture: {fileID: 8900000, guid: 06ed0f8c8a44b5a45b8eb6a123957519, type: 2}
          m_Scale: {x: 1, y: 1}
          m_Offset: {x: 0, y: 0}
      data:
        first:
          name: _MaskMap
        second:
          m_Texture: {fileID: 2800000, guid: d007231bffc06bf4489ecae7c6977812, type: 3}
          m_Scale: {x: 1, y: 1}
          m_Offset: {x: 0, y: 0}
    m_Floats:
      data:
        first:
          name: _nMips
        second: 4
    m_Colors:
      data:
        first:
          name: _Color
        second: {r: 0, g: 1, b: .00689649582, a: 1}
