%YAML 1.1
%TAG !u! tag:unity3d.com,2011:
--- !u!21 &2100000
Material:
  serializedVersion: 3
  m_ObjectHideFlags: 0
  m_PrefabParentObject: {fileID: 0}
  m_PrefabInternal: {fileID: 0}
  m_Name: Gold
  m_Shader: {fileID: 4800000, guid: 5f34199bd90b0a24da78a66b97a16a93, type: 3}
  m_ShaderKeywords: []
  m_CustomRenderQueue: -1
  m_SavedProperties:
    serializedVersion: 2
    m_TexEnvs:
      data:
        first:
          name: _MainTex
        second:
          m_Texture: {fileID: 2800000, guid: 66d98933a33ccf041a7f982ce5345707, type: 3}
          m_Scale: {x: 1, y: 1}
          m_Offset: {x: 0, y: 0}
      data:
        first:
          name: _BumpMap
        second:
          m_Texture: {fileID: 2800000, guid: 1a36fa3c7b62bba49a82be04692dfae3, type: 3}
          m_Scale: {x: 1, y: 1}
          m_Offset: {x: 0, y: 0}
      data:
        first:
          name: _DiffMap
        second:
          m_Texture: {fileID: 0}
          m_Scale: {x: 1, y: 1}
          m_Offset: {x: 0, y: 0}
      data:
        first:
          name: _SpecMap
        second:
          m_Texture: {fileID: 0}
          m_Scale: {x: 1, y: 1}
          m_Offset: {x: 0, y: 0}
      data:
        first:
          name: _MaskMap
        second:
          m_Texture: {fileID: 2800000, guid: c0d9788d9b427ca46a00dfc941a570f7, type: 3}
          m_Scale: {x: 1, y: 1}
          m_Offset: {x: 0, y: 0}
      data:
        first:
          name: _EnvMap
        second:
          m_Texture: {fileID: 0}
          m_Scale: {x: 1, y: 1}
          m_Offset: {x: 0, y: 0}
      data:
        first:
          name: _ReflectCube
        second:
          m_Texture: {fileID: 8900000, guid: f4bb485b111155040b475100a6acf3c9, type: 2}
          m_Scale: {x: 1, y: 1}
          m_Offset: {x: 0, y: 0}
      data:
        first:
          name: _RoughMap
        second:
          m_Texture: {fileID: 2800000, guid: c156111428dc6ba4ebdf5173c81a090e, type: 3}
          m_Scale: {x: 1, y: 1}
          m_Offset: {x: 0, y: 0}
      data:
        first:
          name: _Lightmap
        second:
          m_Texture: {fileID: 0}
          m_Scale: {x: 1, y: 1}
          m_Offset: {x: 0, y: 0}
    m_Floats:
      data:
        first:
          name: _nMips
        second: 1
      data:
        first:
          name: _sphereOffset
        second: 0
      data:
        first:
          name: _Bumpiness
        second: 1
      data:
        first:
          name: _Roughness
        second: .270000011
      data:
        first:
          name: _Reflective
        second: 0
      data:
        first:
          name: _MipLVL
        second: 1.04999995
      data:
        first:
          name: _Metal
        second: 1
    m_Colors:
      data:
        first:
          name: _Color
        second: {r: 1, g: 1, b: 1, a: 1}
      data:
        first:
          name: _boxOffset
        second: {r: 0, g: 0, b: 0, a: 0}
      data:
        first:
          name: _cSpec
        second: {r: 1, g: .709803939, b: .290196091, a: 1}
      data:
        first:
          name: _zonePos
        second: {r: 0, g: 0, b: 0, a: 0}
